{
  "development": {
    "username": "joko",
    "password": "postgres",
    "database": "postgis_js",
    "host": "127.0.0.1",
    "dialect": "postgres"
  },
  "test": {
    "username": "joko",
    "password": "postgres",
    "database": "postgis_js",
    "host": "127.0.0.1",
    "dialect": "postgres"
  },
  "production": {
    "username": "joko",
    "password": "postgres",
    "database": "postgis_js",
    "host": "127.0.0.1",
    "dialect": "postgres"
  }
}
